Applications Graphics Acceleration Info:
Uptime: 116925468 Realtime: 156083136

** Graphics info for pid 17686 [co.soml.android.app] **

Recent DisplayList operations
                      RestoreToCount
                    DrawDisplayList
                      Save
                      ClipRect
                      DrawDisplayList
                        Save
                        ClipRect
                        DrawText
                        RestoreToCount
                      RestoreToCount
            DrawDisplayList
              DrawDisplayList
                DrawDisplayList
                  DrawDisplayList
                    DrawDisplayList
                      DrawRect
                      DrawDisplayList
                        DrawDisplayList
                          Save
                          ConcatMatrix
                          DrawBitmap
                          RestoreToCount
                      DrawDisplayList
                        Save
                        ClipRect
                        DrawText
                        RestoreToCount
                      DrawDisplayList
                        Save
                        ClipRect
                        DrawText
                        DrawText
                        RestoreToCount
          RestoreToCount
  RestoreToCount
DrawRect
DrawRect
DrawRect
DrawRect
DrawRect
DrawRect
DrawText
DrawText
multiDraw
  DrawText
DrawText
multiDraw
  DrawText
DrawBitmap
DrawBitmap

Caches:
Current memory usage / total memory usage (bytes):
  TextureCache          4438948 / 25165824
  LayerCache            3932160 / 16777216
  RenderBufferCache           0 /  2097152
  GradientCache               0 /   524288
  PathCache                   0 / 10485760
  TextDropShadowCache         0 /  2097152
  PatchCache               3456 /   131072
  FontRenderer 0 A8      524288 /   524288
  FontRenderer 0 RGBA         0 /        0
  FontRenderer 0 total   524288 /   524288
Other:
  FboCache                    1 /       16
Total memory usage:
  8898852 bytes, 8.49 MB

Profile data in ms:

	co.soml.android.app/co.soml.android.app.activities.MyStoryActivity/android.view.ViewRootImpl@4294d6e8
View hierarchy:

  co.soml.android.app/co.soml.android.app.activities.MyStoryActivity/android.view.ViewRootImpl@4294d6e8
  83 views, 3.95 kB of display lists, 13 frames rendered


Total ViewRootImpl: 1
Total Views:        83
Total DisplayList:  3.95 kB

